Estudo/Exercicios/Exercicios_7/simulation/qsim/Resolucao_Exercicios_7.msim.vcd
$comment
	File created using the following command:
		vcd file Resolucao_Exercicios_7.msim.vcd -direction
$end
$date
	Thu Sep 08 21:58:32 2022
$end
$version
	ModelSim Version 10.1d
$end
$timescale
	1ps
$end
$scope module ex_7_3_vhd_vec_tst $end
$var wire 1 ! A $end
$var wire 1 " B $end
$var wire 1 # C $end
$var wire 1 $ D $end
$var wire 1 % E $end
$var wire 1 & LED [2] $end
$var wire 1 ' LED [1] $end
$var wire 1 ( LED [0] $end
$scope module i1 $end
$var wire 1 ) gnd $end
$var wire 1 * vcc $end
$var wire 1 + unknown $end
$var wire 1 , devoe $end
$var wire 1 - devclrn $end
$var wire 1 . devpor $end
$var wire 1 / ww_devoe $end
$var wire 1 0 ww_devclrn $end
$var wire 1 1 ww_devpor $end
$var wire 1 2 ww_LED [2] $end
$var wire 1 3 ww_LED [1] $end
$var wire 1 4 ww_LED [0] $end
$var wire 1 5 ww_A $end
$var wire 1 6 ww_B $end
$var wire 1 7 ww_C $end
$var wire 1 8 ww_D $end
$var wire 1 9 ww_E $end
$var wire 1 : \LED[0]~output_o\ $end
$var wire 1 ; \LED[1]~output_o\ $end
$var wire 1 < \LED[2]~output_o\ $end
$var wire 1 = \A~input_o\ $end
$var wire 1 > \B~input_o\ $end
$var wire 1 ? \R~0_combout\ $end
$var wire 1 @ \C~input_o\ $end
$var wire 1 A \S~0_combout\ $end
$var wire 1 B \E~input_o\ $end
$var wire 1 C \D~input_o\ $end
$var wire 1 D \LED~0_combout\ $end
$var wire 1 E \LED~1_combout\ $end
$var wire 1 F \ALT_INV_LED~1_combout\ $end
$var wire 1 G \ALT_INV_R~0_combout\ $end
$upscope $end
$upscope $end
$enddefinitions $end
#0
$dumpvars
0!
0"
0#
0$
0%
0)
1*
x+
1,
1-
1.
1/
10
11
05
06
07
08
09
1:
0;
1<
0=
0>
0?
0@
0A
0B
0C
0D
0E
1F
1G
1&
0'
1(
12
03
14
$end
#10000
1%
19
1B
#20000
0%
1$
09
18
1C
0B
#30000
1%
19
1B
#40000
0%
0$
1#
09
08
17
1@
0C
0B
1A
1;
13
1'
#50000
1%
19
1B
#60000
0%
1$
09
18
1C
0B
1D
1E
0F
0<
02
0&
#70000
1%
19
1B
0E
1F
1<
12
1&
#80000
0%
0$
0#
1"
09
08
07
16
1>
0@
0C
0B
1E
1?
0D
0F
0G
0E
1F
0:
0<
04
02
1<
0(
0&
12
1&
#90000
1%
19
1B
#100000
0%
1$
09
18
1C
0B
#110000
1%
19
1B
#120000
0%
0$
1#
09
08
17
1@
0C
0B
#130000
1%
19
1B
#140000
0%
1$
09
18
1C
0B
#150000
1%
19
1B
#160000
0%
0$
0#
0"
1!
09
08
07
06
15
1=
0>
0@
0C
0B
0A
0?
1G
0;
1:
03
14
0'
1(
#170000
1%
19
1B
#180000
0%
1$
09
18
1C
0B
#190000
1%
19
1B
#200000
0%
0$
1#
09
08
17
1@
0C
0B
1A
1;
13
1'
#210000
1%
19
1B
#220000
0%
1$
09
18
1C
0B
1D
1E
0F
0<
02
0&
#230000
1%
19
1B
0E
1F
1<
12
1&
#240000
0%
0$
0#
1"
09
08
07
16
1>
0@
0C
0B
1E
0D
0F
0E
1F
0<
02
1<
0&
12
1&
#250000
1%
19
1B
#260000
0%
1$
09
18
1C
0B
1D
1E
0F
0<
02
0&
#270000
1%
19
1B
0E
1F
1<
12
1&
#280000
0%
0$
1#
09
08
17
1@
0C
0B
1E
0D
0F
0E
1F
0<
02
1<
0&
12
1&
#290000
1%
19
1B
#300000
0%
1$
09
18
1C
0B
1D
1E
0F
0<
02
0&
#310000
1%
19
1B
0E
1F
1<
12
1&
#320000
0%
0$
0#
0"
0!
09
08
07
06
05
0=
0>
0@
0C
0B
1E
0A
0D
0F
0E
1F
0;
0<
03
02
0'
1<
0&
12
1&
#330000
1%
19
1B
#340000
0%
1$
09
18
1C
0B
#350000
1%
19
1B
#360000
0%
0$
1#
09
08
17
1@
0C
0B
1A
1;
13
1'
#370000
1%
19
1B
#380000
0%
1$
09
18
1C
0B
1D
1E
0F
0<
02
0&
#390000
1%
19
1B
0E
1F
1<
12
1&
#400000
0%
0$
0#
1"
09
08
07
16
1>
0@
0C
0B
1E
1?
0D
0F
0G
0E
1F
0:
0<
04
02
1<
0(
0&
12
1&
#410000
1%
19
1B
#420000
0%
1$
09
18
1C
0B
#430000
1%
19
1B
#440000
0%
0$
1#
09
08
17
1@
0C
0B
#450000
1%
19
1B
#460000
0%
1$
09
18
1C
0B
#470000
1%
19
1B
#480000
0%
0$
0#
0"
1!
09
08
07
06
15
1=
0>
0@
0C
0B
0A
0?
1G
0;
1:
03
14
0'
1(
#490000
1%
19
1B
#500000
0%
1$
09
18
1C
0B
#510000
1%
19
1B
#520000
0%
0$
1#
09
08
17
1@
0C
0B
1A
1;
13
1'
#530000
1%
19
1B
#540000
0%
1$
09
18
1C
0B
1D
1E
0F
0<
02
0&
#550000
1%
19
1B
0E
1F
1<
12
1&
#560000
0%
0$
0#
1"
09
08
07
16
1>
0@
0C
0B
1E
0D
0F
0E
1F
0<
02
1<
0&
12
1&
#570000
1%
19
1B
#580000
0%
1$
09
18
1C
0B
1D
1E
0F
0<
02
0&
#590000
1%
19
1B
0E
1F
1<
12
1&
#600000
0%
0$
1#
09
08
17
1@
0C
0B
1E
0D
0F
0E
1F
0<
02
1<
0&
12
1&
#610000
1%
19
1B
#620000
0%
1$
09
18
1C
0B
1D
1E
0F
0<
02
0&
#630000
1%
19
1B
0E
1F
1<
12
1&
#640000
0%
0$
0#
0"
0!
09
08
07
06
05
0=
0>
0@
0C
0B
1E
0A
0D
0F
0E
1F
0;
0<
03
02
0'
1<
0&
12
1&
#650000
1%
19
1B
#660000
0%
1$
09
18
1C
0B
#670000
1%
19
1B
#680000
0%
0$
1#
09
08
17
1@
0C
0B
1A
1;
13
1'
#690000
1%
19
1B
#700000
0%
1$
09
18
1C
0B
1D
1E
0F
0<
02
0&
#710000
1%
19
1B
0E
1F
1<
12
1&
#720000
0%
0$
0#
1"
09
08
07
16
1>
0@
0C
0B
1E
1?
0D
0F
0G
0E
1F
0:
0<
04
02
1<
0(
0&
12
1&
#730000
1%
19
1B
#740000
0%
1$
09
18
1C
0B
#750000
1%
19
1B
#760000
0%
0$
1#
09
08
17
1@
0C
0B
#770000
1%
19
1B
#780000
0%
1$
09
18
1C
0B
#790000
1%
19
1B
#800000
0%
0$
0#
0"
1!
09
08
07
06
15
1=
0>
0@
0C
0B
0A
0?
1G
0;
1:
03
14
0'
1(
#810000
1%
19
1B
#820000
0%
1$
09
18
1C
0B
#830000
1%
19
1B
#840000
0%
0$
1#
09
08
17
1@
0C
0B
1A
1;
13
1'
#850000
1%
19
1B
#860000
0%
1$
09
18
1C
0B
1D
1E
0F
0<
02
0&
#870000
1%
19
1B
0E
1F
1<
12
1&
#880000
0%
0$
0#
1"
09
08
07
16
1>
0@
0C
0B
1E
0D
0F
0E
1F
0<
02
1<
0&
12
1&
#890000
1%
19
1B
#900000
0%
1$
09
18
1C
0B
1D
1E
0F
0<
02
0&
#910000
1%
19
1B
0E
1F
1<
12
1&
#920000
0%
0$
1#
09
08
17
1@
0C
0B
1E
0D
0F
0E
1F
0<
02
1<
0&
12
1&
#930000
1%
19
1B
#940000
0%
1$
09
18
1C
0B
1D
1E
0F
0<
02
0&
#950000
1%
19
1B
0E
1F
1<
12
1&
#960000
0%
0$
0#
0"
0!
09
08
07
06
05
0=
0>
0@
0C
0B
1E
0A
0D
0F
0E
1F
0;
0<
03
02
0'
1<
0&
12
1&
#970000
1%
19
1B
#980000
0%
1$
09
18
1C
0B
#990000
1%
19
1B
