Estudo/Exercicios/Exercicios_6/simulation/qsim/Resolucao_exercicios_6.msim.vcd
$comment
	File created using the following command:
		vcd file Resolucao_exercicios_6.msim.vcd -direction
$end
$date
	Thu Sep 08 18:22:17 2022
$end
$version
	ModelSim Version 10.1d
$end
$timescale
	1ps
$end
$scope module ex_6_3_vhd_vec_tst $end
$var wire 1 ! F [3] $end
$var wire 1 " F [2] $end
$var wire 1 # F [1] $end
$var wire 1 $ F [0] $end
$var wire 1 % O $end
$scope module i1 $end
$var wire 1 & gnd $end
$var wire 1 ' vcc $end
$var wire 1 ( unknown $end
$var wire 1 ) devoe $end
$var wire 1 * devclrn $end
$var wire 1 + devpor $end
$var wire 1 , ww_devoe $end
$var wire 1 - ww_devclrn $end
$var wire 1 . ww_devpor $end
$var wire 1 / ww_F [3] $end
$var wire 1 0 ww_F [2] $end
$var wire 1 1 ww_F [1] $end
$var wire 1 2 ww_F [0] $end
$var wire 1 3 ww_O $end
$var wire 1 4 \O~output_o\ $end
$var wire 1 5 \F[0]~input_o\ $end
$var wire 1 6 \F[3]~input_o\ $end
$var wire 1 7 \F[1]~input_o\ $end
$var wire 1 8 \F[2]~input_o\ $end
$var wire 1 9 \Mux0~0_combout\ $end
$upscope $end
$upscope $end
$enddefinitions $end
#0
$dumpvars
0%
0&
1'
x(
1)
1*
1+
1,
1-
1.
03
04
05
06
07
08
09
0!
0"
0#
0$
0/
00
01
02
$end
#10000
1$
12
15
19
14
13
1%
#20000
0$
1#
02
11
17
05
#30000
1$
12
15
09
04
03
0%
#40000
0$
0#
1"
02
01
10
18
07
05
19
14
13
1%
#50000
1$
12
15
09
04
03
0%
#60000
0$
1#
02
11
17
05
#70000
1$
12
15
#80000
0$
0#
0"
1!
02
01
00
1/
16
08
07
05
#90000
1$
12
15
#100000
0$
1#
02
11
17
05
#110000
1$
12
15
#120000
0$
0#
1"
02
01
10
18
07
05
#130000
1$
12
15
#140000
0$
1#
02
11
17
05
#150000
1$
12
15
#160000
0$
0#
0"
0!
02
01
00
0/
06
08
07
05
#170000
1$
12
15
19
14
13
1%
#180000
0$
1#
02
11
17
05
#190000
1$
12
15
09
04
03
0%
#200000
0$
0#
1"
02
01
10
18
07
05
19
14
13
1%
#210000
1$
12
15
09
04
03
0%
#220000
0$
1#
02
11
17
05
#230000
1$
12
15
#240000
0$
0#
0"
1!
02
01
00
1/
16
08
07
05
#250000
1$
12
15
#260000
0$
1#
02
11
17
05
#270000
1$
12
15
#280000
0$
0#
1"
02
01
10
18
07
05
#290000
1$
12
15
#300000
0$
1#
02
11
17
05
#310000
1$
12
15
#320000
0$
0#
0"
0!
02
01
00
0/
06
08
07
05
#330000
1$
12
15
19
14
13
1%
#340000
0$
1#
02
11
17
05
#350000
1$
12
15
09
04
03
0%
#360000
0$
0#
1"
02
01
10
18
07
05
19
14
13
1%
#370000
1$
12
15
09
04
03
0%
#380000
0$
1#
02
11
17
05
#390000
1$
12
15
#400000
0$
0#
0"
1!
02
01
00
1/
16
08
07
05
#410000
1$
12
15
#420000
0$
1#
02
11
17
05
#430000
1$
12
15
#440000
0$
0#
1"
02
01
10
18
07
05
#450000
1$
12
15
#460000
0$
1#
02
11
17
05
#470000
1$
12
15
#480000
0$
0#
0"
0!
02
01
00
0/
06
08
07
05
#490000
1$
12
15
19
14
13
1%
#500000
0$
1#
02
11
17
05
#510000
1$
12
15
09
04
03
0%
#520000
0$
0#
1"
02
01
10
18
07
05
19
14
13
1%
#530000
1$
12
15
09
04
03
0%
#540000
0$
1#
02
11
17
05
#550000
1$
12
15
#560000
0$
0#
0"
1!
02
01
00
1/
16
08
07
05
#570000
1$
12
15
#580000
0$
1#
02
11
17
05
#590000
1$
12
15
#600000
0$
0#
1"
02
01
10
18
07
05
#610000
1$
12
15
#620000
0$
1#
02
11
17
05
#630000
1$
12
15
#640000
0$
0#
0"
0!
02
01
00
0/
06
08
07
05
#650000
1$
12
15
19
14
13
1%
#660000
0$
1#
02
11
17
05
#670000
1$
12
15
09
04
03
0%
#680000
0$
0#
1"
02
01
10
18
07
05
19
14
13
1%
#690000
1$
12
15
09
04
03
0%
#700000
0$
1#
02
11
17
05
#710000
1$
12
15
#720000
0$
0#
0"
1!
02
01
00
1/
16
08
07
05
#730000
1$
12
15
#740000
0$
1#
02
11
17
05
#750000
1$
12
15
#760000
0$
0#
1"
02
01
10
18
07
05
#770000
1$
12
15
#780000
0$
1#
02
11
17
05
#790000
1$
12
15
#800000
0$
0#
0"
0!
02
01
00
0/
06
08
07
05
#810000
1$
12
15
19
14
13
1%
#820000
0$
1#
02
11
17
05
#830000
1$
12
15
09
04
03
0%
#840000
0$
0#
1"
02
01
10
18
07
05
19
14
13
1%
#850000
1$
12
15
09
04
03
0%
#860000
0$
1#
02
11
17
05
#870000
1$
12
15
#880000
0$
0#
0"
1!
02
01
00
1/
16
08
07
05
#890000
1$
12
15
#900000
0$
1#
02
11
17
05
#910000
1$
12
15
#920000
0$
0#
1"
02
01
10
18
07
05
#930000
1$
12
15
#940000
0$
1#
02
11
17
05
#950000
1$
12
15
#960000
0$
0#
0"
0!
02
01
00
0/
06
08
07
05
#970000
1$
12
15
19
14
13
1%
#980000
0$
1#
02
11
17
05
#990000
1$
12
15
09
04
03
0%
