Estudo/Aula7/aula7-20220906T132418Z-001/aula7/simulation/qsim/Exercicio_Elevador.msim.vcd
$comment
	File created using the following command:
		vcd file Exercicio_Elevador.msim.vcd -direction
$end
$date
	Fri Jul 29 10:55:32 2022
$end
$version
	ModelSim Version 10.1d
$end
$timescale
	1ps
$end
$scope module Exercicio_Elevador_vlg_vec_tst $end
$var reg 1 ! A $end
$var reg 1 " B $end
$var reg 1 # C $end
$var reg 1 $ D $end
$var wire 1 % X $end
$var wire 1 & sampler $end
$scope module i1 $end
$var wire 1 ' gnd $end
$var wire 1 ( vcc $end
$var wire 1 ) unknown $end
$var tri1 1 * devclrn $end
$var tri1 1 + devpor $end
$var tri1 1 , devoe $end
$var wire 1 - X~output_o $end
$var wire 1 . D~input_o $end
$var wire 1 / B~input_o $end
$var wire 1 0 C~input_o $end
$var wire 1 1 A~input_o $end
$var wire 1 2 X~0_combout $end
$upscope $end
$upscope $end
$enddefinitions $end
#0
$dumpvars
0!
0"
0#
0$
0%
x&
0'
1(
x)
1*
1+
1,
0-
0.
0/
00
01
02
$end
#10000
1!
11
0&
#20000
1"
0!
1/
01
1&
12
1-
1%
#25000
1$
1.
0&
#30000
1#
1!
10
11
1&
02
0-
0%
#40000
0"
0!
0/
01
0&
12
1-
1%
#50000
0$
1!
0.
11
1&
02
0-
0%
#60000
0#
1"
0!
00
1/
01
0&
12
1-
1%
#70000
1!
11
1&
02
0-
0%
#75000
1$
1.
0&
#80000
0"
0!
0/
01
1&
12
1-
1%
#90000
1#
1!
10
11
0&
02
0-
0%
#100000
0$
1"
0!
0.
1/
01
1&
12
1-
1%
#110000
1!
11
0&
02
0-
0%
#120000
0#
0"
0!
00
0/
01
1&
#125000
1$
1.
0&
12
1-
1%
#130000
1!
11
1&
02
0-
0%
#140000
1"
0!
1/
01
0&
12
1-
1%
#150000
1#
0$
1!
10
0.
11
1&
02
0-
0%
#160000
0"
0!
0/
01
0&
12
1-
1%
#170000
1!
11
1&
02
0-
0%
#175000
1$
1.
0&
#180000
0#
1"
0!
00
1/
01
1&
12
1-
1%
#190000
1!
11
0&
02
0-
0%
#200000
0$
0"
0!
0.
0/
01
1&
#210000
1#
1!
10
11
0&
#220000
1"
0!
1/
01
1&
12
1-
1%
#225000
1$
1.
0&
#230000
1!
11
1&
02
0-
0%
#240000
0#
0"
0!
00
0/
01
0&
12
1-
1%
#250000
0$
1!
0.
11
1&
02
0-
0%
#260000
1"
0!
1/
01
0&
12
1-
1%
#270000
1#
1!
10
11
1&
02
0-
0%
#275000
1$
1.
0&
#280000
0"
0!
0/
01
1&
12
1-
1%
#290000
1!
11
0&
02
0-
0%
#300000
0#
0$
1"
0!
00
0.
1/
01
1&
12
1-
1%
#310000
1!
11
0&
02
0-
0%
#320000
0"
0!
0/
01
1&
#325000
1$
1.
0&
12
1-
1%
#330000
1#
1!
10
11
1&
02
0-
0%
#340000
1"
0!
1/
01
0&
12
1-
1%
#350000
0$
1!
0.
11
1&
02
0-
0%
#360000
0#
0"
0!
00
0/
01
0&
#370000
1!
11
1&
#375000
1$
1.
0&
#380000
1"
0!
1/
01
1&
12
1-
1%
#390000
1#
1!
10
11
0&
02
0-
0%
#400000
0$
0"
0!
0.
0/
01
1&
12
1-
1%
#410000
1!
11
0&
02
0-
0%
#420000
0#
1"
0!
00
1/
01
1&
12
1-
1%
#425000
1$
1.
0&
#430000
1!
11
1&
02
0-
0%
#440000
0"
0!
0/
01
0&
12
1-
1%
#450000
1#
0$
1!
10
0.
11
1&
02
0-
0%
#460000
1"
0!
1/
01
0&
12
1-
1%
#470000
1!
11
1&
02
0-
0%
#475000
1$
1.
0&
#480000
0#
0"
0!
00
0/
01
1&
12
1-
1%
#490000
1!
11
0&
02
0-
0%
#500000
0$
1"
0!
0.
1/
01
1&
12
1-
1%
#510000
1#
1!
10
11
0&
02
0-
0%
#520000
0"
0!
0/
01
1&
12
1-
1%
#525000
1$
1.
0&
#530000
1!
11
1&
02
0-
0%
#540000
0#
1"
0!
00
1/
01
0&
12
1-
1%
#550000
0$
1!
0.
11
1&
02
0-
0%
#560000
0"
0!
0/
01
0&
#570000
1#
1!
10
11
1&
#575000
1$
1.
0&
#580000
1"
0!
1/
01
1&
12
1-
1%
#590000
1!
11
0&
02
0-
0%
#600000
0#
0$
0"
0!
00
0.
0/
01
1&
#610000
1!
11
0&
#620000
1"
0!
1/
01
1&
12
1-
1%
#625000
1$
1.
0&
#630000
1#
1!
10
11
1&
02
0-
0%
#640000
0"
0!
0/
01
0&
12
1-
1%
#650000
0$
1!
0.
11
1&
02
0-
0%
#660000
0#
1"
0!
00
1/
01
0&
12
1-
1%
#670000
1!
11
1&
02
0-
0%
#675000
1$
1.
0&
#680000
0"
0!
0/
01
1&
12
1-
1%
#690000
1#
1!
10
11
0&
02
0-
0%
#700000
0$
1"
0!
0.
1/
01
1&
12
1-
1%
#710000
1!
11
0&
02
0-
0%
#720000
0#
0"
0!
00
0/
01
1&
#725000
1$
1.
0&
12
1-
1%
#730000
1!
11
1&
02
0-
0%
#740000
1"
0!
1/
01
0&
12
1-
1%
#750000
1#
0$
1!
10
0.
11
1&
02
0-
0%
#760000
0"
0!
0/
01
0&
12
1-
1%
#770000
1!
11
1&
02
0-
0%
#775000
1$
1.
0&
#780000
0#
1"
0!
00
1/
01
1&
12
1-
1%
#790000
1!
11
0&
02
0-
0%
#800000
0$
0"
0!
0.
0/
01
1&
#810000
1#
1!
10
11
0&
#820000
1"
0!
1/
01
1&
12
1-
1%
#825000
1$
1.
0&
#830000
1!
11
1&
02
0-
0%
#840000
0#
0"
0!
00
0/
01
0&
12
1-
1%
#850000
0$
1!
0.
11
1&
02
0-
0%
#860000
1"
0!
1/
01
0&
12
1-
1%
#870000
1#
1!
10
11
1&
02
0-
0%
#875000
1$
1.
0&
#880000
0"
0!
0/
01
1&
12
1-
1%
#890000
1!
11
0&
02
0-
0%
#900000
0#
0$
1"
0!
00
0.
1/
01
1&
12
1-
1%
#910000
1!
11
0&
02
0-
0%
#920000
0"
0!
0/
01
1&
#925000
1$
1.
0&
12
1-
1%
#930000
1#
1!
10
11
1&
02
0-
0%
#940000
1"
0!
1/
01
0&
12
1-
1%
#950000
0$
1!
0.
11
1&
02
0-
0%
#960000
0#
0"
0!
00
0/
01
0&
#970000
1!
11
1&
#975000
1$
1.
0&
#980000
1"
0!
1/
01
1&
12
1-
1%
#990000
1#
1!
10
11
0&
02
0-
0%
